<?xml version="1.0" encoding="utf-8"?>
<!-- Generator: Adobe Illustrator 22.1.0, SVG Export Plug-In . SVG Version: 6.00 Build 0)  -->
<svg version="1.1" id="Layer_1" xmlns="http://www.w3.org/2000/svg" xmlns:xlink="http://www.w3.org/1999/xlink" x="0px" y="0px"
	 viewBox="0 0 1152 542" style="enable-background:new 0 0 1152 542;" xml:space="preserve">
<style type="text/css">
	.st0{fill:#0C4DA2;}
	.st1{fill:#438940;}
	.st2{fill:#89B24C;}
</style>
<g>
	<g>
		<g>
			<g>
				<path class="st0" d="M496.6,412.9c-2.1-0.3-3.8-0.7-5.1-1.3v-5.8c1.6,0.6,3.3,1.1,5.1,1.5c1.9,0.3,3.6,0.5,5.3,0.5
					c3.1,0,5.3-0.3,6.6-0.8c1.3-0.5,2-1.6,2-3.3c0-1-0.3-1.8-0.8-2.4s-1.2-1.1-2.1-1.5s-2.3-0.9-4.1-1.5l-2.5-0.8
					c-3.5-1.2-6-2.5-7.8-3.9c-1.7-1.4-2.6-3.4-2.6-6c0-3.1,1.2-5.5,3.5-7.2s5.7-2.6,10.3-2.6c1.9,0,3.7,0.1,5.6,0.4s3.5,0.7,4.8,1.1
					v5.7c-1.4-0.5-2.9-0.9-4.6-1.2c-1.7-0.3-3.3-0.4-4.8-0.4c-2.7,0-4.7,0.3-6,0.9c-1.4,0.6-2.1,1.6-2.1,3.1c0,0.9,0.3,1.6,0.9,2.2
					s1.3,1.1,2.3,1.5s2.5,0.9,4.5,1.6l1.8,0.6c3.6,1.2,6.2,2.6,7.8,4c1.6,1.5,2.4,3.6,2.4,6.4c0,3.3-1.2,5.7-3.7,7.3
					c-2.4,1.6-5.9,2.4-10.3,2.4C500.9,413.3,498.7,413.2,496.6,412.9z"/>
				<path class="st0" d="M522.6,383.5h5.9v3.1h9.3l-0.3,5.1h-14.9V383.5z M522.6,400.7h5.9v3.2h9.3l-0.3,5.1h-14.9V400.7z"/>
				<path class="st0" d="M548.5,409.8c-2.7-2.3-4.1-5.8-4.1-10.4v-20.9h6.9v21.1c0,2.8,0.7,4.8,2.2,6.2c1.5,1.3,3.6,2,6.6,2
					c2.9,0,5.1-0.7,6.6-2s2.2-3.4,2.2-6.2v-21.1h6.8v20.9c0,4.6-1.4,8.1-4.1,10.4c-2.7,2.3-6.6,3.5-11.6,3.5
					C555.1,413.3,551.2,412.2,548.5,409.8z"/>
				<path class="st0" d="M587.8,409.8c-2.7-2.3-4.1-5.8-4.1-10.4v-20.9h6.9v21.1c0,2.8,0.7,4.8,2.2,6.2c1.5,1.3,3.6,2,6.6,2
					c2.9,0,5.1-0.7,6.6-2s2.2-3.4,2.2-6.2v-21.1h6.8v20.9c0,4.6-1.4,8.1-4.1,10.4c-2.7,2.3-6.6,3.5-11.6,3.5
					C594.4,413.3,590.5,412.2,587.8,409.8z"/>
				<path class="st0" d="M623.6,400.3c0-4.2,1.7-6.8,5-7.9l-6.8-1.7v-7.1c1.9-1.7,4.2-3.1,7.1-4.2c2.8-1.1,5.9-1.6,9.3-1.6
					c5.2,0,9.1,1.1,11.7,3.2c2.6,2.2,3.9,5.6,3.9,10.4v21.2h-6.9v-21.4c0-2.9-0.7-5-2-6.1c-1.4-1.2-3.7-1.7-7-1.7
					c-2.1,0-4,0.3-5.9,0.9c-1.8,0.6-3.3,1.4-4.3,2.3v1.1l7.2,1.8v4.6c-1.6,0.4-2.8,1.1-3.5,2s-1,2.3-1,4.2v12.3h-6.8V400.3z"/>
				<path class="st0" d="M664,410.8c-2.1-1.7-3.2-4.3-3.2-7.9c0-3.4,1.1-6,3.4-7.8c2.3-1.8,5.6-2.8,9.9-2.8h10.4v-2.2
					c0-1.7-0.3-3-0.8-4s-1.5-1.7-2.7-2.1c-1.3-0.4-3-0.6-5.3-0.6c-4,0-7.7,0.5-11.1,1.6v-5.3c1.7-0.5,3.7-1,5.9-1.4s4.3-0.5,6.4-0.5
					c5,0,8.7,1,11,3.1c2.4,2.1,3.5,5.4,3.5,9.8v21.9h-6.9v-15.1h-10c-2.4,0-4.3,0.4-5.4,1.2c-1.2,0.8-1.7,2.2-1.7,4.1
					c0,1.8,0.5,3.1,1.6,3.8c1.1,0.7,2.8,1.1,5.3,1.1c1.7,0,3.1-0.2,4.4-0.5v5.3c-1.8,0.5-3.9,0.8-6.2,0.8
					C668.9,413.3,666.1,412.5,664,410.8z"/>
				<path class="st0" d="M712.4,391.2c0-1.9-0.2-3.3-0.6-4.4c-0.4-1.1-1.1-1.9-2.2-2.5c-1.1-0.6-2.6-0.9-4.7-0.9
					c-1.4,0-2.8,0.1-4.4,0.4c-1.6,0.3-3,0.7-4.3,1.2v-5.3c1.3-0.5,2.9-1,4.7-1.4s3.6-0.5,5.3-0.5c4.6,0,7.9,1,9.9,3s3.1,5.1,3.1,9.4
					v22.4h-6.9v-21.4L712.4,391.2L712.4,391.2z"/>
				<path class="st0" d="M734.4,412.5l-9.6-23.4h6.7l7.8,19c3.6,0.2,6.2-0.9,7.9-3.1s2.5-5.7,2.5-10.4c0-2.8-0.3-5-0.8-6.5
					c-0.5-1.6-1.4-2.7-2.5-3.3c-1.2-0.7-2.8-1-5-1H739v-5.2h3.3c4.9,0,8.4,1.3,10.7,3.9s3.4,6.6,3.4,12.1c0,6.4-1.4,11.2-4.2,14.2
					c-2.8,3.1-6.6,4.6-11.4,4.6C738,413.3,735.9,413.1,734.4,412.5z"/>
				<path class="st0" d="M763,378.5h6.3l0.4,3.7c3.4-2.9,7.5-4.4,12.2-4.4c3.6,0,6.4,1.1,8.4,3.2c2,2.2,3,5.2,3,9.1v22.5h-6.8v-22.2
					c0-2.4-0.6-4.2-1.7-5.4c-1.2-1.1-2.9-1.7-5.3-1.7c-1.8,0-3.5,0.4-5.2,1.1c-1.6,0.8-3.1,1.8-4.2,3v25.1H763V378.5z"/>
				<path class="st0" d="M814.3,391.2c0-1.9-0.2-3.3-0.6-4.4c-0.4-1.1-1.1-1.9-2.2-2.5c-1.1-0.6-2.6-0.9-4.7-0.9
					c-1.4,0-2.8,0.1-4.4,0.4c-1.6,0.3-3,0.7-4.3,1.2v-5.3c1.3-0.5,2.9-1,4.7-1.4s3.6-0.5,5.3-0.5c4.6,0,7.9,1,9.9,3s3.1,5.1,3.1,9.4
					v22.4h-6.9v-21.4L814.3,391.2L814.3,391.2z"/>
				<path class="st0" d="M836.3,412.5l-9.6-23.4h6.7l7.8,19c3.6,0.2,6.2-0.9,7.9-3.1s2.5-5.7,2.5-10.4c0-2.8-0.3-5-0.8-6.5
					c-0.5-1.6-1.4-2.7-2.5-3.3c-1.2-0.7-2.8-1-5-1h-2.4v-5.2h3.3c4.9,0,8.4,1.3,10.7,3.9s3.4,6.6,3.4,12.1c0,6.4-1.4,11.2-4.2,14.2
					c-2.8,3.1-6.6,4.6-11.4,4.6C839.9,413.3,837.8,413.1,836.3,412.5z"/>
				<path class="st0" d="M865.5,400.3c0-4.2,1.7-6.8,5-7.9l-6.8-1.7v-7.1c1.9-1.7,4.2-3.1,7.1-4.2c2.8-1.1,5.9-1.6,9.3-1.6
					c5.2,0,9.1,1.1,11.7,3.2c2.6,2.2,3.9,5.6,3.9,10.4v21.2h-6.9v-21.4c0-2.9-0.7-5-2-6.1c-1.4-1.2-3.7-1.7-7-1.7
					c-2.1,0-4,0.3-5.9,0.9c-1.8,0.6-3.3,1.4-4.3,2.3v1.1l7.2,1.8v4.6c-1.6,0.4-2.8,1.1-3.5,2s-1,2.3-1,4.2v12.3h-6.8V400.3z"/>
				<path class="st0" d="M923.2,424.2c-1.3-0.5-2.3-1.2-2.9-2.1c-1.1,1.9-3,2.8-5.8,2.8h-6.1l0.4-5.5h4.5c1.2,0,2.2-0.2,2.9-0.6
					s1.3-1.1,1.7-2.1h4.5c0.4,1,0.9,1.7,1.5,2.2s1.4,0.8,2.5,0.8c1.2,0,2.1-0.3,2.7-1c0.5-0.6,0.8-1.6,0.8-2.9v-24.6
					c0-2.9-0.7-4.9-2-6.1s-3.5-1.8-6.7-1.8c-2.1,0-4.1,0.3-5.9,0.9c-1.8,0.6-3.3,1.4-4.3,2.3v1.1l7.4,1.8v4.6
					c-1.6,0.5-2.6,1.1-3.1,2s-0.8,2.3-0.8,4.2v4.6c0,5.1-2.5,7.7-7.5,7.7h-4.2v-5.4h2.3c0.9,0,1.5-0.2,1.9-0.6s0.5-1.1,0.5-2.1v-4.2
					c0-2,0.3-3.7,1-5c0.6-1.3,1.8-2.2,3.5-2.9l-7-1.7v-7.1c1.9-1.6,4.2-3,7-4.1s5.9-1.7,9.3-1.7c5,0,8.8,1.1,11.4,3.3
					c2.6,2.2,3.9,5.6,3.9,10.3v24.8c0,2.8-0.8,4.9-2.5,6.5c-1.6,1.5-3.9,2.3-6.8,2.3C925.9,425,924.5,424.8,923.2,424.2z"/>
				<path class="st0" d="M944.7,378.5h6.9v10.8h9.9c2.4,0,4.1-0.5,5.1-1.5s1.5-2.6,1.5-4.8v-4.4h6.8v4.2c0,4.8-1.7,7.8-5.1,9.1
					c1.8,0.6,3.1,1.6,3.8,3s1,3.1,1,5.3v12.6h-6.8V401c0-2.4-0.5-4.1-1.4-5s-2.6-1.4-5.1-1.4h-9.6v18.2h-6.9v-34.3L944.7,378.5
					L944.7,378.5z"/>
				<path class="st0" d="M994.9,412.2c-1.9-0.7-3.7-1.8-5.3-3.3l-0.4,3.7h-6.3v-34.2h6.9v25.2c1.2,1.2,2.6,2.2,4.2,3
					c1.6,0.8,3.4,1.1,5.2,1.1c2.4,0,4.2-0.6,5.3-1.7c1.2-1.1,1.7-3,1.7-5.5v-22.1h6.8v22.4c0,3.9-1,7-3.1,9.1s-4.9,3.3-8.6,3.3
					C999.1,413.3,996.9,413,994.9,412.2z"/>
				<path class="st0" d="M1034.2,391.2c0-1.9-0.2-3.3-0.6-4.4s-1.1-1.9-2.2-2.5s-2.6-0.9-4.7-0.9c-1.4,0-2.8,0.1-4.4,0.4
					c-1.6,0.3-3,0.7-4.3,1.2v-5.3c1.3-0.5,2.9-1,4.7-1.4c1.8-0.4,3.6-0.5,5.3-0.5c4.6,0,7.9,1,9.9,3s3.1,5.1,3.1,9.4v22.4h-6.9
					L1034.2,391.2L1034.2,391.2L1034.2,391.2z"/>
				<path class="st0" d="M1051.9,410.7c-2.8-1.7-4.2-4.4-4.2-8.1c0-1.7,0.4-3.3,1.2-4.6c0.8-1.3,2-2.4,3.5-3.1
					c-1.4-0.5-2.5-1.4-3.3-2.6s-1.2-2.8-1.2-4.5c0-3.2,1-5.6,2.9-7.3c1.9-1.7,4.5-2.6,7.8-2.6c2.2,0,4,0.3,5.6,0.8v5.3
					c-1.2-0.3-2.7-0.5-4.3-0.5c-3.5,0-5.3,1.4-5.3,4.3c0,3,2,4.5,6,4.5h3.6l0.3,5.1h-4.1c-4,0-6,1.8-6,5.3c0,1.7,0.7,3,2.2,3.9
					s3.7,1.3,6.7,1.3s5.2-0.6,6.7-1.8c1.5-1.2,2.2-3,2.2-5.5v-22h6.8v21.2c0,4.6-1.3,8-3.9,10.3c-2.6,2.2-6.4,3.4-11.6,3.4
					C1058.6,413.3,1054.7,412.5,1051.9,410.7z"/>
			</g>
		</g>
		<g>
			<path class="st0" d="M482.7,335.5V139.2h50.6v152.2h78.9v44.1L482.7,335.5L482.7,335.5z"/>
			<path class="st0" d="M786.4,335.5l-9.7-28.3h-77.4l-9.7,28.3h-57.4l73.9-196.3h63.6l74.2,196.3H786.4z M737.8,189.3l-25,73.9h50
				L737.8,189.3z"/>
			<path class="st0" d="M999.4,335.5l-29.7-123l-29.7,123h-53.6l-56.2-196.3h56.8l29.7,131l33.5-131h38.8l33.5,131l29.4-131h57.1
				l-56.2,196.3L999.4,335.5L999.4,335.5z"/>
		</g>
	</g>
	<g>
		<g>
			<g>
				<circle class="st1" cx="222.9" cy="82.1" r="13.1"/>
				<circle class="st1" cx="114.4" cy="132.5" r="13.1"/>
				<path class="st1" d="M114.4,408.7c-7.2,0-13.1,5.9-13.1,13.1s5.9,13.1,13.1,13.1s13.1-5.9,13.1-13.1
					C127.5,414.5,121.6,408.7,114.4,408.7z"/>
				<circle class="st1" cx="331.4" cy="132.5" r="13.1"/>
				<path class="st1" d="M331.4,408.7c-7.2,0-13.1,5.9-13.1,13.1s5.9,13.1,13.1,13.1s13.1-5.9,13.1-13.1
					C344.5,414.5,338.7,408.7,331.4,408.7z"/>
				<ellipse class="st1" cx="56.7" cy="277.1" rx="13.1" ry="13.1"/>
				<path class="st1" d="M392.8,290.2c7.2,0,13.1-5.9,13.1-13.1S400,264,392.8,264s-13.1,5.9-13.1,13.1
					C379.7,284.4,385.6,290.2,392.8,290.2z"/>
				<circle class="st1" cx="222.9" cy="480.1" r="13.1"/>
			</g>
			<path class="st0" d="M100.1,214.4l0.1,0.1c1,1.6,2.2,3.2,3.3,4.7c4.1,5.7,8.8,12.2,8.8,21.8c0,4.5-1,8.3-2.6,11.7
				c-11,2.3-19.2,12-19.2,23.6c0,11.3,7.8,20.8,18.3,23.4c2,3.9,3.5,8.3,3.5,13.7c0,9.6-4.7,16.1-8.8,21.8c-1.1,1.5-2.2,3-3.2,4.5
				l-0.1,0.1c-0.2,0.3-0.4,0.7-0.7,1.1l-0.1,0.2c-0.1,0.1-0.2,0.3-0.2,0.4l-0.1,0.2c-0.1,0.3-0.3,0.5-0.4,0.8l-0.1,0.2
				c-0.1,0.1-0.1,0.2-0.2,0.4c0,0.1-0.1,0.2-0.1,0.3s-0.1,0.2-0.1,0.4c0,0.1-0.1,0.3-0.1,0.4s-0.1,0.3-0.1,0.4
				c-0.1,0.2-0.1,0.4-0.2,0.6l-0.1,0.3c0,0.2-0.1,0.3-0.1,0.5l-0.1,0.3c0,0.2-0.1,0.4-0.1,0.6v0.2c0,0.2-0.1,0.5-0.1,0.7v0.2
				c0,0.2,0,0.4,0,0.6v0.2c0,0.3,0,0.5,0,0.8c0,9.5,7.7,17.2,17.2,17.2c0.3,0,0.5,0,0.8,0h0.1c0.1,0,0.1,0,0.2,0c0.2,0,0.4,0,0.6,0
				h0.2c0.2,0,0.5-0.1,0.7-0.1h0.2c0.2,0,0.4-0.1,0.6-0.1l0.2-0.1c0.2,0,0.3-0.1,0.5-0.1l0.3-0.1c0.2,0,0.4-0.1,0.5-0.2
				c0.1,0,0.3-0.1,0.4-0.1s0.3-0.1,0.4-0.1s0.2-0.1,0.4-0.1c0.1,0,0.2-0.1,0.3-0.1c0.1-0.1,0.3-0.1,0.4-0.2l0.2-0.3
				c0.3-0.1,0.5-0.2,0.8-0.4l0.2-0.1c0.1-0.1,0.3-0.2,0.4-0.2l0.1-0.1c0.4-0.3,0.8-0.5,1.1-0.7l0.1-0.1c1.5-1,3.1-2.1,4.5-3.2
				c5.7-4.1,12.2-8.8,21.8-8.8s16.1,4.7,21.8,8.8c1.5,1.1,3.1,2.2,4.7,3.3l0.1,0.1c2.8,1.9,6.1,2.9,9.5,2.9h0.1h0.1
				c0.2,0,0.5,0,0.7,0h0.2c0.2,0,0.4,0,0.6,0h0.2c0.2,0,0.5-0.1,0.7-0.1h0.1c0.2,0,0.4-0.1,0.6-0.1l0.3-0.1c0.2,0,0.3-0.1,0.5-0.1
				l0.3-0.1c0.2,0,0.4-0.1,0.5-0.2c0.1,0,0.3-0.1,0.4-0.1c0.1,0,0.3-0.1,0.4-0.1c0.1,0,0.2-0.1,0.4-0.1c0.1,0,0.2-0.1,0.3-0.1
				c0.1-0.1,0.3-0.1,0.4-0.2l0.2-0.1c0.3-0.1,0.5-0.2,0.8-0.4l0.2-0.1c0.1-0.1,0.3-0.2,0.4-0.2l0.2-0.1c0.4-0.2,0.8-0.5,1.1-0.7
				l0.1-0.1c1.5-1,3.1-2.1,4.5-3.2c5.7-4.1,12.2-8.8,21.8-8.8s16.1,4.7,21.8,8.8c1.5,1.1,3.1,2.2,4.7,3.3l0.1,0.1
				c2.8,1.9,6.1,2.9,9.5,2.9h0.1h0.1c3.4,0,6.7-1,9.5-2.9l0.1-0.1c1.6-1,3.2-2.2,4.7-3.3c5.7-4.1,12.2-8.8,21.8-8.8
				s16.1,4.7,21.8,8.8c1.5,1.1,3.1,2.2,4.7,3.3l0.1,0.1c2.8,1.9,6.1,2.9,9.6,2.9c9.5,0,17.2-7.7,17.2-17.2s-7.7-17.2-17.2-17.2
				c-3.4,0-6.7,1-9.6,2.9l-0.1,0.1c-1.6,1-3.2,2.2-4.7,3.3c-5.7,4.1-12.2,8.8-21.8,8.8s-16.1-4.7-21.8-8.8c-1.5-1.1-3.1-2.2-4.7-3.3
				l-0.1-0.1c-2.8-1.9-6.1-2.9-9.5-2.9h-0.2h-0.1c-3.4,0-6.7,1-9.5,2.9l-0.1,0.1c-1.6,1-3.2,2.2-4.7,3.3c-5.7,4.1-12.2,8.8-21.8,8.8
				s-16.1-4.7-21.8-8.8c-1.5-1.1-3-2.2-4.5-3.2l-0.1-0.1c-0.3-0.2-0.7-0.4-1.1-0.7l-0.2-0.1c-0.1-0.1-0.3-0.1-0.4-0.2l-0.2-0.1
				c-0.2-0.1-0.4-0.2-0.7-0.3l-0.3-0.1c-0.1,0-0.2-0.1-0.3-0.1c-0.1-0.1-0.3-0.1-0.4-0.1c-0.1,0-0.2-0.1-0.3-0.1
				c-0.1-0.1-0.3-0.1-0.4-0.1c-0.1,0-0.2-0.1-0.3-0.1c-0.2-0.1-0.4-0.1-0.6-0.2l-0.3-0.1c-0.2,0-0.3-0.1-0.5-0.1l-0.3-0.1
				c-0.2,0-0.4-0.1-0.7-0.1h-0.1c-0.2,0-0.5-0.1-0.7-0.1h-0.2c-0.2,0-0.4,0-0.6,0h-0.2c-0.2,0-0.5,0-0.7,0h-0.2h-0.1
				c-3.4,0-6.7,1-9.5,2.9l-0.1,0.1c-1.6,1-3.2,2.2-4.7,3.3c-5.7,4.1-12.2,8.8-21.8,8.8s-16.1-4.7-21.8-8.8l-1.9-1.4l-1.4-1.9
				c-4.1-5.7-8.8-12.2-8.8-21.8c0-5.4,1.5-9.8,3.5-13.6c2.8-0.7,5.5-1.8,7.8-3.4c7.7-5,13.2-11,22.7-11s15,6,22.7,11
				c0.2,0.1,0.3,0.2,0.5,0.3s0.4,0.3,0.6,0.4s0.4,0.3,0.7,0.4c0.2,0.1,0.5,0.3,0.8,0.4c0.3,0.2,0.6,0.3,0.9,0.4
				c0.3,0.1,0.5,0.2,0.8,0.3c0.2,0.1,0.4,0.2,0.7,0.3s0.6,0.2,1,0.3c0.3,0.1,0.5,0.2,0.8,0.2c0.3,0.1,0.7,0.2,1,0.3
				c0.2,0,0.4,0.1,0.6,0.1c0.4,0.1,0.8,0.2,1.2,0.2c0.2,0,0.3,0.1,0.5,0.1c0.4,0.1,0.9,0.1,1.3,0.2c0.2,0,0.3,0,0.5,0
				c0.5,0,1,0.1,1.5,0.1l0,0l0,0l0,0c0.6,0,1.1,0,1.6-0.1c0.1,0,0.3,0,0.4,0c1.1-0.1,2.2-0.3,3.2-0.5c0.1,0,0.2,0,0.3-0.1
				c1.1-0.3,2.1-0.6,3.1-1c0.1,0,0.1-0.1,0.2-0.1c1-0.4,2-0.9,3-1.4c0,0,0.1,0,0.1-0.1c0.5-0.3,1.1-0.6,1.6-1
				c7.6-4.9,13.1-10.8,22.5-10.8c9.5,0,15,6,22.7,11c0.2,0.1,0.3,0.2,0.5,0.3s0.4,0.3,0.6,0.4c0.2,0.1,0.4,0.3,0.7,0.4
				c0.2,0.1,0.5,0.3,0.8,0.4c0.3,0.2,0.6,0.3,0.9,0.4c0.3,0.1,0.5,0.2,0.8,0.3c0.2,0.1,0.4,0.2,0.7,0.3s0.6,0.2,1,0.3
				c0.3,0.1,0.5,0.2,0.8,0.2c0.3,0.1,0.7,0.2,1,0.3c0.2,0,0.4,0.1,0.6,0.1c0.4,0.1,0.8,0.2,1.2,0.2c0.2,0,0.3,0.1,0.5,0.1
				c0.4,0.1,0.9,0.1,1.3,0.2c0.2,0,0.3,0,0.5,0c0.5,0,1,0.1,1.5,0.1l0,0l0,0l0,0l0,0c0.5,0,1,0,1.5-0.1c0.2,0,0.3,0,0.5,0
				c0.4,0,0.9-0.1,1.3-0.2c0.2,0,0.3,0,0.5-0.1c0.4-0.1,0.8-0.1,1.2-0.2c0.2,0,0.4-0.1,0.6-0.1c0.3-0.1,0.7-0.2,1-0.3
				c0.3-0.1,0.5-0.2,0.8-0.2c0.3-0.1,0.6-0.2,1-0.3c0.2-0.1,0.4-0.2,0.7-0.3c0.3-0.1,0.5-0.2,0.8-0.3c0.3-0.1,0.6-0.3,0.9-0.5
				c0.3-0.1,0.5-0.3,0.7-0.4s0.4-0.3,0.7-0.4c0.2-0.1,0.4-0.2,0.6-0.4c0.2-0.1,0.3-0.2,0.5-0.3c7.7-5,13.2-11,22.7-11s15,6,22.7,11
				c3.5,2.3,7.6,3.8,12,4c0.4,0,0.7,0,1.1,0c0.1,0,0.2,0,0.3,0c0,0,0,0,0.1,0c0,0,0,0,0.1,0c13.3,0,24.1-10.8,24.1-24.1
				c0-13.3-10.8-24.1-24.1-24.1c0,0,0,0-0.1,0c0,0,0,0-0.1,0s-0.2,0-0.3,0c-0.4,0-0.7,0-1.1,0c-4.4,0.2-8.6,1.7-12,4
				c-7.7,5-13.2,11-22.7,11s-15-6-22.7-11c-0.2-0.1-0.4-0.2-0.5-0.3c-0.2-0.1-0.4-0.2-0.6-0.4c-0.2-0.1-0.5-0.3-0.7-0.4
				c-0.2-0.1-0.5-0.2-0.7-0.4c-0.3-0.2-0.7-0.3-1-0.5c-0.3-0.1-0.5-0.2-0.8-0.3c-0.2-0.1-0.4-0.2-0.7-0.3c-0.3-0.1-0.6-0.2-0.9-0.3
				s-0.5-0.2-0.8-0.3s-0.7-0.2-1-0.3c-0.2,0-0.4-0.1-0.6-0.1c-0.4-0.1-0.8-0.2-1.2-0.2c-0.2,0-0.3-0.1-0.5-0.1
				c-0.4-0.1-0.9-0.1-1.3-0.2c-0.2,0-0.3,0-0.5,0c-0.5,0-1-0.1-1.5-0.1l0,0l0,0l0,0l0,0c-0.5,0-1,0-1.5,0.1c-0.2,0-0.3,0-0.5,0
				c-0.4,0-0.9,0.1-1.3,0.2c-0.2,0-0.3,0-0.5,0.1c-0.4,0.1-0.8,0.1-1.2,0.2c-0.2,0-0.4,0.1-0.6,0.1c-0.3,0.1-0.7,0.2-1,0.3
				s-0.5,0.2-0.8,0.3s-0.6,0.2-0.9,0.3c-0.2,0.1-0.5,0.2-0.7,0.3c-0.3,0.1-0.5,0.2-0.8,0.3c-0.3,0.2-0.7,0.3-1,0.5
				c-0.2,0.1-0.5,0.2-0.7,0.4c-0.2,0.1-0.5,0.3-0.7,0.4s-0.4,0.2-0.6,0.4c-0.2,0.1-0.4,0.2-0.5,0.3c-7.7,5-13.2,11-22.7,11
				c-9.4,0-15-5.9-22.5-10.9c-0.5-0.4-1-0.7-1.6-1l-0.1-0.1c-0.9-0.5-1.9-1-3-1.4c-0.1,0-0.2-0.1-0.2-0.1c-1-0.4-2-0.7-3.1-1
				c-0.1,0-0.2-0.1-0.3-0.1c-0.5-0.1-1.1-0.2-1.6-0.3l0,0c-0.5-0.1-1.1-0.1-1.6-0.2c-0.1,0-0.3,0-0.4,0c-0.5,0-1.1-0.1-1.6-0.1l0,0
				l0,0l0,0c-0.5,0-1,0-1.5,0.1c-0.2,0-0.3,0-0.5,0c-0.4,0-0.9,0.1-1.3,0.2c-0.2,0-0.3,0-0.5,0.1c-0.4,0.1-0.8,0.1-1.2,0.2
				c-0.2,0-0.4,0.1-0.6,0.1c-0.3,0.1-0.7,0.2-1,0.3s-0.5,0.2-0.8,0.3s-0.6,0.2-0.9,0.3c-0.2,0.1-0.5,0.2-0.7,0.3
				c-0.3,0.1-0.5,0.2-0.8,0.3c-0.3,0.2-0.7,0.3-1,0.5c-0.2,0.1-0.5,0.2-0.7,0.4c-0.2,0.1-0.5,0.3-0.7,0.4s-0.4,0.2-0.6,0.4
				c-0.2,0.1-0.4,0.2-0.5,0.3c-7.7,5-13.2,11-22.7,11s-15-6-22.7-11c-2.6-1.7-5.6-3-8.7-3.6c-1.5-3.4-2.6-7.2-2.6-11.7
				c0-9.6,4.7-16.1,8.8-21.8c0.3-0.4,0.6-0.8,0.9-1.2l0.7-0.9l1.8-1.3c5.7-4.1,12.2-8.8,21.8-8.8s16.1,4.7,21.8,8.8
				c1.5,1.1,3.1,2.2,4.7,3.3l0.1,0.1c2.8,1.9,6.1,2.9,9.5,2.9h0.2h0.1c0.2,0,0.5,0,0.7,0h0.2c0.2,0,0.4,0,0.6,0h0.3
				c0.2,0,0.5-0.1,0.7-0.1h0.1c0.2,0,0.4-0.1,0.6-0.1l0.3-0.1c0.2,0,0.3-0.1,0.5-0.1l0.3-0.1c0.2,0,0.4-0.1,0.5-0.2
				c0.1,0,0.3-0.1,0.4-0.1c0.1,0,0.3-0.1,0.4-0.1c0.1,0,0.2-0.1,0.4-0.1c0.1,0,0.2-0.1,0.3-0.1c0.1-0.1,0.3-0.1,0.4-0.2l0.2-0.1
				c0.3-0.1,0.5-0.2,0.8-0.4l0.2-0.1c0.1-0.1,0.3-0.2,0.4-0.2l0.1-0.1c0.4-0.2,0.8-0.5,1.1-0.7l0.1-0.1c1.5-1,3.1-2.1,4.5-3.2
				c5.7-4.1,12.2-8.8,21.8-8.8s16.1,4.7,21.8,8.8c1.5,1.1,3.1,2.2,4.7,3.3l0.1,0.1c2.8,1.9,6.1,2.9,9.6,2.9
				c9.5,0,17.2-7.7,17.2-17.2s-7.7-17.2-17.2-17.2c-3.4,0-6.7,1-9.6,2.9l-0.1,0.1c-1.6,1-3.2,2.2-4.7,3.3
				c-5.7,4.1-12.2,8.8-21.8,8.8s-16.1-4.7-21.8-8.8c-1.5-1.1-3-2.2-4.5-3.2l-0.1-0.1c-0.3-0.2-0.7-0.4-1.1-0.7l-0.2-0.1
				c-0.1-0.1-0.3-0.1-0.4-0.2l-0.2-0.1c-0.2-0.1-0.5-0.2-0.7-0.3l-0.3-0.1c-0.1,0-0.2-0.1-0.3-0.1l0,0c-0.1,0-0.2-0.1-0.3-0.1
				s-0.2-0.1-0.3-0.1c-0.1-0.1-0.3-0.1-0.4-0.1c-0.1,0-0.2-0.1-0.3-0.1c-0.2-0.1-0.4-0.1-0.6-0.2l-0.3-0.1c-0.2,0-0.3-0.1-0.5-0.1
				c-0.1,0-0.2,0-0.3-0.1c-0.2,0-0.5-0.1-0.7-0.1h-0.1c-0.2,0-0.5-0.1-0.7-0.1h-0.2c-0.2,0-0.4,0-0.6,0h-0.2c-0.2,0-0.5,0-0.7,0H187
				h-0.1c-3.4,0-6.7,1-9.5,2.9l-0.1,0.1c-1.6,1-3.2,2.2-4.7,3.3c-5.7,4.1-12.2,8.8-21.8,8.8s-16.1-4.7-21.8-8.8
				c-1.5-1.1-3-2.2-4.5-3.2l-0.1-0.1c-0.3-0.2-0.7-0.4-1.1-0.7l-0.2-0.1c-0.1-0.1-0.3-0.2-0.4-0.2l-0.2-0.1
				c-0.2-0.1-0.5-0.2-0.7-0.3l-0.3-0.1c-0.1,0-0.2-0.1-0.3-0.1l0,0c-0.1,0-0.2-0.1-0.3-0.1c-0.1,0-0.2-0.1-0.3-0.1
				c-0.2-0.1-0.3-0.1-0.4-0.1s-0.2-0.1-0.3-0.1c-0.2-0.1-0.4-0.1-0.6-0.2L119,189c-0.2,0-0.3-0.1-0.5-0.1c-0.1,0-0.2,0-0.3-0.1
				c-0.2,0-0.5-0.1-0.7-0.1h-0.1c-0.2,0-0.5-0.1-0.7-0.1h-0.2c-0.2,0-0.4,0-0.6,0h-0.2c-0.3,0-0.5,0-0.8,0
				c-9.5,0-17.2,7.7-17.2,17.1v0.1v0.1C97.2,208.3,98.2,211.6,100.1,214.4z"/>
		</g>
		<circle class="st2" cx="186.7" cy="421.8" r="17.2"/>
		<g>
			<path class="st2" d="M331.4,222c9.5,0,17.2-7.7,17.2-17.2s-7.7-17.2-17.2-17.2s-17.2,7.7-17.2,17.2S321.9,222,331.4,222z"/>
			<path class="st2" d="M186.7,149.7c9.5,0,17.2-7.7,17.2-17.2s-7.7-17.2-17.2-17.2s-17.2,7.7-17.2,17.2S177.2,149.7,186.7,149.7z"
				/>
			<circle class="st2" cx="259.1" cy="421.8" r="17.2"/>
			<path class="st2" d="M259.1,149.7c9.5,0,17.2-7.7,17.2-17.2s-7.7-17.2-17.2-17.2s-17.2,7.7-17.2,17.2
				C241.8,142,249.6,149.7,259.1,149.7z"/>
		</g>
	</g>
</g>
</svg>
